<?xml version="1.0" encoding="UTF-8" standalone="no"?>
<svg width="97px" height="81px" viewBox="0 0 97 81" version="1.1" xmlns="http://www.w3.org/2000/svg" xmlns:xlink="http://www.w3.org/1999/xlink">
    <!-- Generator: Sketch 45 (43475) - http://www.bohemiancoding.com/sketch -->
    <title>Page 1</title>
    <desc>Created with Sketch.</desc>
    <defs>
        <polygon id="path-1" points="0.385750258 0.322 25.0025769 0.322 25.0025769 17.5757 0.385750258 17.5757 0.385750258 0.322"></polygon>
    </defs>
    <g id="Page-1" stroke="none" stroke-width="1" fill="none" fill-rule="evenodd">
        <g id="enfant" transform="translate(-612.000000, -400.000000)">
            <g id="Page-1" transform="translate(613.000000, 399.000000)">
                <path d="M90.0369,68.4165 C79.1969,66.4105 61.3969,62.0155 70.4649,55.0105 C72.1529,53.7065 78.6419,51.4085 76.5339,49.1965 C74.3569,46.9155 68.2249,46.3065 64.6679,45.7315 C59.9809,44.9745 55.2389,43.9665 50.5169,43.6495 C40.3999,42.9715 30.8029,43.6275 21.1479,44.3465 C17.0009,44.6545 1.0549,48.2525 0.4889,50.9175" id="Stroke-1" stroke="#231F20"></path>
                <path d="M38.2635,56.4297 C41.4295,56.2627 42.5955,67.7627 42.5955,67.7627 C43.2625,75.4297 44.7635,77.0967 44.7635,77.0967 C47.9295,82.0967 52.5955,76.4297 52.5955,76.4297 C59.7625,65.7627 57.4295,44.0967 57.4295,44.0967 C73.9295,19.9297 58.0955,15.5967 58.0955,15.5967 C47.9295,12.9297 38.4295,16.9297 38.4295,16.9297 L38.0965,16.9297 C38.0965,16.9297 28.5975,12.9297 18.4295,15.5967 C18.4295,15.5967 2.5965,19.9297 19.0965,44.0967 C19.0965,44.0967 16.7635,65.7627 23.9295,76.4297 C23.9295,76.4297 28.5955,82.0967 31.7635,77.0967 C31.7635,77.0967 33.2635,75.4297 33.9295,67.7627 C33.9295,67.7627 35.0955,56.2627 38.2635,56.4297" id="Fill-3" fill="#FFFFFF"></path>
                <path d="M38.2635,56.4297 C41.4295,56.2627 42.5955,67.7627 42.5955,67.7627 C43.2625,75.4297 44.7635,77.0967 44.7635,77.0967 C47.9295,82.0967 52.5955,76.4297 52.5955,76.4297 C59.7625,65.7627 57.4295,44.0967 57.4295,44.0967 C73.9295,19.9297 58.0955,15.5967 58.0955,15.5967 C47.9295,12.9297 38.4295,16.9297 38.4295,16.9297 L38.0965,16.9297 C38.0965,16.9297 28.5975,12.9297 18.4295,15.5967 C18.4295,15.5967 2.5965,19.9297 19.0965,44.0967 C19.0965,44.0967 16.7635,65.7627 23.9295,76.4297 C23.9295,76.4297 28.5955,82.0967 31.7635,77.0967 C31.7635,77.0967 33.2635,75.4297 33.9295,67.7627 C33.9295,67.7627 35.0955,56.2627 38.2635,56.4297 Z" id="Stroke-5" stroke="#231F20"></path>
                <path d="M50.6385,32.5967 C50.6385,34.8057 48.8475,36.5967 46.6385,36.5967 C44.4295,36.5967 42.6385,34.8057 42.6385,32.5967 C42.6385,30.3877 44.4295,28.5967 46.6385,28.5967 C48.8475,28.5967 50.6385,30.3877 50.6385,32.5967" id="Fill-7" fill="#231F20"></path>
                <path d="M47.1873,34.8774 C45.6933,35.2314 44.2613,34.7324 43.6793,33.7464 C43.6673,33.9374 43.6733,34.1294 43.7203,34.3204 C44.0353,35.6514 45.7073,36.3964 47.4513,35.9814 C49.1953,35.5684 50.3533,34.1534 50.0373,32.8224 C49.9923,32.6304 49.9123,32.4564 49.8143,32.2914 C49.7383,33.4334 48.6833,34.5234 47.1873,34.8774" id="Fill-9" fill="#939598"></path>
                <path d="M46.1229,30.9297 C46.2949,31.3057 45.9959,31.8147 45.4529,32.0657 C44.9099,32.3167 44.3279,32.2137 44.1539,31.8377 C43.9799,31.4617 44.2809,30.9537 44.8239,30.7027 C45.3669,30.4517 45.9489,30.5537 46.1229,30.9297" id="Fill-11" fill="#FFFFFF"></path>
                <path d="M53.9715,39.2837 C53.9715,40.2847 52.2255,41.0957 50.0725,41.0957 C47.9175,41.0957 46.1715,40.2847 46.1715,39.2837 C46.1715,38.2827 47.9175,37.4717 50.0725,37.4717 C52.2255,37.4717 53.9715,38.2827 53.9715,39.2837" id="Fill-13" fill="#F8C1D9"></path>
                <path d="M34.0545,32.5967 C34.0545,34.8057 32.2635,36.5967 30.0545,36.5967 C27.8455,36.5967 26.0545,34.8057 26.0545,32.5967 C26.0545,30.3877 27.8455,28.5967 30.0545,28.5967 C32.2635,28.5967 34.0545,30.3877 34.0545,32.5967" id="Fill-15" fill="#231F20"></path>
                <path d="M30.6033,34.8774 C29.1093,35.2314 27.6773,34.7324 27.0953,33.7464 C27.0833,33.9374 27.0893,34.1294 27.1363,34.3204 C27.4513,35.6514 29.1233,36.3964 30.8673,35.9814 C32.6113,35.5684 33.7693,34.1534 33.4533,32.8224 C33.4083,32.6304 33.3283,32.4564 33.2303,32.2914 C33.1543,33.4334 32.0993,34.5234 30.6033,34.8774" id="Fill-17" fill="#939598"></path>
                <path d="M29.5389,30.9297 C29.7109,31.3057 29.4119,31.8147 28.8689,32.0657 C28.3259,32.3167 27.7439,32.2137 27.5699,31.8377 C27.3959,31.4617 27.6969,30.9537 28.2399,30.7027 C28.7829,30.4517 29.3649,30.5537 29.5389,30.9297" id="Fill-19" fill="#FFFFFF"></path>
                <path d="M22.7215,39.2837 C22.7215,40.2847 24.4675,41.0957 26.6205,41.0957 C28.7755,41.0957 30.5215,40.2847 30.5215,39.2837 C30.5215,38.2827 28.7755,37.4717 26.6205,37.4717 C24.4675,37.4717 22.7215,38.2827 22.7215,39.2837" id="Fill-21" fill="#F8C1D9"></path>
                <path d="M33.7401,39.9087 C33.7401,40.3227 33.8161,40.7157 33.9221,41.0957 C34.1461,41.8997 34.5811,42.6087 35.1761,43.1587 C35.9681,43.8897 37.0151,44.3457 38.1771,44.3457 C39.3401,44.3457 40.3881,43.8897 41.1791,43.1587 C41.7751,42.6087 42.2111,41.8997 42.4341,41.0957 C42.5411,40.7157 42.6151,40.3227 42.6151,39.9087 L33.7401,39.9087 Z" id="Fill-23" fill="#D3D5D6"></path>
                <path d="M10.4813,53.1567 C10.4363,53.0887 10.3963,53.0197 10.3583,52.9467 C10.0713,52.4217 9.8643,51.8547 9.7513,51.2657 L8.1713,46.5247 C7.6863,45.0687 8.4753,43.4967 9.9293,43.0127 C11.3853,42.5277 12.9583,43.3147 13.4423,44.7697 L13.4473,44.7827 C14.7563,44.3097 16.2393,44.3017 17.6253,44.8837 C20.5523,46.1137 21.9283,49.4847 20.6983,52.4117 C19.4683,55.3397 16.0973,56.7157 13.1693,55.4857 C12.0023,54.9957 11.0883,54.1627 10.4813,53.1567" id="Fill-25" fill="#FFFFFF"></path>
                <path d="M10.4813,53.1567 C10.4363,53.0887 10.3963,53.0197 10.3583,52.9467 C10.0713,52.4217 9.8643,51.8547 9.7513,51.2657 L8.1713,46.5247 C7.6863,45.0687 8.4753,43.4967 9.9293,43.0127 C11.3853,42.5277 12.9583,43.3147 13.4423,44.7697 L13.4473,44.7827 C14.7563,44.3097 16.2393,44.3017 17.6253,44.8837 C20.5523,46.1137 21.9283,49.4847 20.6983,52.4117 C19.4683,55.3397 16.0973,56.7157 13.1693,55.4857 C12.0023,54.9957 11.0883,54.1627 10.4813,53.1567 Z" id="Stroke-27" stroke="#231F20"></path>
                <path d="M66.2606,53.1567 C66.3056,53.0887 66.3456,53.0197 66.3836,52.9467 C66.6706,52.4217 66.8776,51.8547 66.9906,51.2657 L68.5706,46.5247 C69.0556,45.0687 68.2666,43.4967 66.8126,43.0127 C65.3566,42.5277 63.7836,43.3147 63.2996,44.7697 L63.2946,44.7827 C61.9856,44.3097 60.5026,44.3017 59.1166,44.8837 C56.1896,46.1137 54.8136,49.4847 56.0436,52.4117 C57.2736,55.3397 60.6446,56.7157 63.5726,55.4857 C64.7396,54.9957 65.6536,54.1627 66.2606,53.1567" id="Fill-29" fill="#FFFFFF"></path>
                <path d="M66.2606,53.1567 C66.3056,53.0887 66.3456,53.0197 66.3836,52.9467 C66.6706,52.4217 66.8776,51.8547 66.9906,51.2657 L68.5706,46.5247 C69.0556,45.0687 68.2666,43.4967 66.8126,43.0127 C65.3566,42.5277 63.7836,43.3147 63.2996,44.7697 L63.2946,44.7827 C61.9856,44.3097 60.5026,44.3017 59.1166,44.8837 C56.1896,46.1137 54.8136,49.4847 56.0436,52.4117 C57.2736,55.3397 60.6446,56.7157 63.5726,55.4857 C64.7396,54.9957 65.6536,54.1627 66.2606,53.1567 Z" id="Stroke-31" stroke="#231F20"></path>
                <path d="M70.2449,71.5122 C70.2449,75.7152 72.3369,79.4262 75.5289,81.6782 L89.8439,81.6782 C93.0369,79.4262 95.1279,75.7152 95.1279,71.5122 C95.1279,69.2582 94.5189,67.1512 93.4719,65.3272 L71.9009,65.3272 C70.8539,67.1512 70.2449,69.2582 70.2449,71.5122" id="Fill-33" fill="#92D3EF"></path>
                <path d="M83.6873,57.5991 C79.1163,56.9421 74.7783,58.8651 72.1223,62.2571 L93.4713,65.3281 C91.8783,61.3241 88.2573,58.2571 83.6873,57.5991" id="Fill-35" fill="#92D3EF"></path>
                <path d="M50.0926,16.6504 C52.2286,12.9884 49.8576,9.4384 49.8576,9.4384 C47.4656,5.6804 42.9586,6.5244 40.8516,7.2284 C35.0176,9.1804 32.4546,8.0924 32.4546,8.0924 C26.6206,5.5144 31.2426,1.1164 31.3636,1.0034 C30.2306,1.5584 27.4196,3.2794 26.7306,6.9244 C26.7306,6.9244 25.1266,13.4684 35.3706,11.8414 C35.3706,11.8414 50.7956,7.3804 48.7246,18.2384 L49.0666,17.9314 C49.7866,17.2124 50.0926,16.6504 50.0926,16.6504" id="Fill-37" fill="#00AEEF"></path>
                <g id="Group-41" transform="translate(24.000000, 0.678200)">
                    <mask id="mask-2" fill="white">
                        <use xlink:href="#path-1"></use>
                    </mask>
                    <g id="Clip-40"></g>
                    <path d="M24.7264,17.5757 L24.7264,17.5757 C24.3104,10.4987 13.3334,13.8427 13.3334,13.8427 C0.7474,17.5097 0.4314,11.1987 0.4314,11.1987 C-0.1366,5.6477 4.7514,1.7907 6.4554,0.6247 C6.7484,0.5117 7.0514,0.4077 7.3674,0.3217 C7.3674,0.3217 7.3654,0.3227 7.3634,0.3247 C6.2304,0.8807 3.4194,2.6007 2.7304,6.2467 C2.7304,6.2467 1.1264,12.7907 11.3714,11.1637 C11.3714,11.1637 26.8824,6.3457 24.8124,17.2037 L24.7264,17.5757" id="Fill-39" fill="#FFFFFF" mask="url(#mask-2)"></path>
                </g>
                <path d="M37.3338,14.5205 C25.1578,16.8945 25.0378,11.0265 25.0378,11.0265 C24.4668,5.4765 29.3828,2.3105 31.0858,1.1455 C25.9028,2.3545 23.5528,8.2615 23.5528,8.2615 C21.1878,15.5405 29.1618,18.1885 29.1618,18.1885 C40.6538,23.2575 46.3698,20.3665 48.7268,18.2535 C48.3108,11.1765 37.3338,14.5205 37.3338,14.5205" id="Fill-42" fill="#F8C1D9"></path>
            </g>
        </g>
    </g>
</svg>